Lab 05
…
Select variables

Note that pull() returns a single variable (called a “vector” in R) along with all its values. If you want to select one or more variables but return the result as a table, use select(). For instance, here are the variables in the penguins dataset.

names(penguins)
## [1] "species"           "island"            "bill_length_mm"   
## [4] "bill_depth_mm"     "flipper_length_mm" "body_mass_g"      
## [7] "sex"               "year"

Now suppose (for reasons) that I want a smaller table that only has the species and bill_length_mm variables. To get that from the larger table, I simply do this

penguins_small <- select(penguins, species, bill_length_mm)

penguins_small
## # A tibble: 344 x 2
##    species bill_length_mm
##    <fct>            <dbl>
##  1 Adelie            39.1
##  2 Adelie            39.5
##  3 Adelie            40.3
##  4 Adelie            NA  
##  5 Adelie            36.7
##  6 Adelie            39.3
##  7 Adelie            38.9
##  8 Adelie            39.2
##  9 Adelie            34.1
## 10 Adelie            42  
## # ... with 334 more rows
…
Filter penguins that have a flipper length greater than 185 mm.

Fitler penguins that reside on Torgersen island and have a body mass less than 3500 g.

Try two more filters with multiple conditions of your choice.

Miscellaneous Dplyr

Sort observations

Sometimes it can be useful to sort a table, so you can more easily navigate the information it contains. To do this, dplyr provides the arrange() function. This sorts observations based on a supplied variable or variables. By default, it sorts observations in ascending order (from A to Z for character and 0 to Infinity for numeric). If you provide multiple variables, it will sort the first variable first, then sort the second variable within that variable, and so on. In effect, it breaks ties in the sorting process.

penguins
## # A tibble: 344 x 8
##    species island    bill_length_mm bill_depth_mm flipper_length_mm body_mass_g
##    <fct>   <fct>              <dbl>         <dbl>             <int>       <int>
##  1 Adelie  Torgersen           39.1          18.7               181        3750
##  2 Adelie  Torgersen           39.5          17.4               186        3800
##  3 Adelie  Torgersen           40.3          18                 195        3250
##  4 Adelie  Torgersen           NA            NA                  NA          NA
##  5 Adelie  Torgersen           36.7          19.3               193        3450
##  6 Adelie  Torgersen           39.3          20.6               190        3650
##  7 Adelie  Torgersen           38.9          17.8               181        3625
##  8 Adelie  Torgersen           39.2          19.6               195        4675
##  9 Adelie  Torgersen           34.1          18.1               193        3475
## 10 Adelie  Torgersen           42            20.2               190        4250
## # ... with 334 more rows, and 2 more variables: sex <fct>, year <int>
arrange(penguins, species, island)
## # A tibble: 344 x 8
##    species island bill_length_mm bill_depth_mm flipper_length_mm body_mass_g
##    <fct>   <fct>           <dbl>         <dbl>             <int>       <int>
##  1 Adelie  Biscoe           37.8          18.3               174        3400
##  2 Adelie  Biscoe           37.7          18.7               180        3600
##  3 Adelie  Biscoe           35.9          19.2               189        3800
##  4 Adelie  Biscoe           38.2          18.1               185        3950
##  5 Adelie  Biscoe           38.8          17.2               180        3800
##  6 Adelie  Biscoe           35.3          18.9               187        3800
##  7 Adelie  Biscoe           40.6          18.6               183        3550
##  8 Adelie  Biscoe           40.5          17.9               187        3200
##  9 Adelie  Biscoe           37.9          18.6               172        3150
## 10 Adelie  Biscoe           40.5          18.9               180        3950
## # ... with 334 more rows, and 2 more variables: sex <fct>, year <int>

You can use the desc() function to sort descending.

arrange(penguins, desc(species))
## # A tibble: 344 x 8
##    species island bill_length_mm bill_depth_mm flipper_length_mm body_mass_g
##    <fct>   <fct>           <dbl>         <dbl>             <int>       <int>
##  1 Gentoo  Biscoe           46.1          13.2               211        4500
##  2 Gentoo  Biscoe           50            16.3               230        5700
##  3 Gentoo  Biscoe           48.7          14.1               210        4450
##  4 Gentoo  Biscoe           50            15.2               218        5700
##  5 Gentoo  Biscoe           47.6          14.5               215        5400
##  6 Gentoo  Biscoe           46.5          13.5               210        4550
##  7 Gentoo  Biscoe           45.4          14.6               211        4800
##  8 Gentoo  Biscoe           46.7          15.3               219        5200
##  9 Gentoo  Biscoe           43.3          13.4               209        4400
## 10 Gentoo  Biscoe           46.8          15.4               215        5150
## # ... with 334 more rows, and 2 more variables: sex <fct>, year <int>

Pretty tibbles

You may not have noticed before, but the penguins data comes in the form of a tibble rather than a default data.frame. In the grand scheme of things, the differences between tibbles and data.frames are quite small. However, I want to draw your attention to them briefly to avoid any confusion, especially because dplyr will on occasion implicitly convert data.frames to tibbles. The main difference is that tibbles have nicer (some might say prettier) print methods.

Here’s the penguins data printed as a tibble.

penguins
## # A tibble: 344 x 8
##    species island    bill_length_mm bill_depth_mm flipper_length_mm body_mass_g
##    <fct>   <fct>              <dbl>         <dbl>             <int>       <int>
##  1 Adelie  Torgersen           39.1          18.7               181        3750
##  2 Adelie  Torgersen           39.5          17.4               186        3800
##  3 Adelie  Torgersen           40.3          18                 195        3250
##  4 Adelie  Torgersen           NA            NA                  NA          NA
##  5 Adelie  Torgersen           36.7          19.3               193        3450
##  6 Adelie  Torgersen           39.3          20.6               190        3650
##  7 Adelie  Torgersen           38.9          17.8               181        3625
##  8 Adelie  Torgersen           39.2          19.6               195        4675
##  9 Adelie  Torgersen           34.1          18.1               193        3475
## 10 Adelie  Torgersen           42            20.2               190        4250
## # ... with 334 more rows, and 2 more variables: sex <fct>, year <int>
…
