Lab 08
…
# or

tibble(
  x = 1:5,
  y = 6:10
)

And mutating a table looks like this:

mutate(
  penguins,
  id = 1:n(),
  bill_length_cm = bill_length_mm/10
)
## # A tibble: 344 x 10
##    species island    bill_length_mm bill_depth_mm flipper_length_mm body_mass_g
##    <fct>   <fct>              <dbl>         <dbl>             <int>       <int>
##  1 Adelie  Torgersen           39.1          18.7               181        3750
##  2 Adelie  Torgersen           39.5          17.4               186        3800
##  3 Adelie  Torgersen           40.3          18                 195        3250
##  4 Adelie  Torgersen           NA            NA                  NA          NA
##  5 Adelie  Torgersen           36.7          19.3               193        3450
##  6 Adelie  Torgersen           39.3          20.6               190        3650
##  7 Adelie  Torgersen           38.9          17.8               181        3625
##  8 Adelie  Torgersen           39.2          19.6               195        4675
##  9 Adelie  Torgersen           34.1          18.1               193        3475
## 10 Adelie  Torgersen           42            20.2               190        4250
## # ... with 334 more rows, and 4 more variables: sex <fct>, year <int>,
## #   id <int>, bill_length_cm <dbl>
…
Note that you can refer to new variables you have created in the same mutate() call.

penguins_small <- select(penguins, species, island)

mutate(
  penguins_small,
  id = 1:n(),
  id2 = id * 2
)
## # A tibble: 344 x 4
##    species island       id   id2
##    <fct>   <fct>     <int> <dbl>
##  1 Adelie  Torgersen     1     2
##  2 Adelie  Torgersen     2     4
##  3 Adelie  Torgersen     3     6
##  4 Adelie  Torgersen     4     8
##  5 Adelie  Torgersen     5    10
##  6 Adelie  Torgersen     6    12
##  7 Adelie  Torgersen     7    14
##  8 Adelie  Torgersen     8    16
##  9 Adelie  Torgersen     9    18
## 10 Adelie  Torgersen    10    20
## # ... with 334 more rows
…
