Lab 10
…
remove(DartPoints)

darts <- here("darts", "darts.csv") %>% 
  read.csv() %>% 
  as_tibble() %>% 
  rename_with(tolower) %>% 
  rename("type" = name)

darts

## # A tibble: 91 x 17
##    type  catalog tarl     quad  length width thickness b.width j.width h.length
##    <fct> <chr>   <chr>    <chr>  <dbl> <dbl>     <dbl>   <dbl>   <dbl>    <dbl>
##  1 Darl  41-0322 41CV0536 26/59   42.8  15.8       5.8    11.3    10.6     11.6
##  2 Darl  35-2946 41CV0235 21/63   40.5  17.4       5.8    NA      13.7     12.9
##  3 Darl  35-2921 41CV0132 20/63   37.5  16.3       6.1    12.1    11.3      8.2
##  4 Darl  36-3487 41CV0594 10/54   40.3  16.1       6.3    13.5    11.7      8.3
##  5 Darl  36-3321 41CV1023 12/58   30.6  17.1       4      12.6    11.2      8.9
##  6 Darl  35-2959 41CV0235 21/63   41.8  16.8       4.1    12.7    11.5     11  
##  7 Darl  35-2866 41CV0855 25/65   40.3  20.7       5.9    11.7    11.4      7.6
##  8 Darl  41-0323 41CV0536 26/59   48.5  18.7       6.9    14.7    13.4      9.2
##  9 Darl  35-2325 41CV0795 20/48   47.7  17.5       7.2    14.3    11.8      8.9
## 10 Darl  40-0847 41CV1287 05/48   33.6  15.8       5.1    NA      12.5     11.5
## # ... with 81 more rows, and 7 more variables: weight <dbl>, blade.sh <fct>,
## #   base.sh <fct>, should.sh <fct>, should.or <fct>, haft.sh <fct>,
## #   haft.or <fct>
…
remove(Snodgrass)

snodgrass <- here("darts", "snodgrass.csv") %>% 
  read.csv() %>% 
  as_tibble() %>% 
  rename_with(tolower) %>% 
  select(inside, area) %>% 
  mutate(
    inside = ifelse(inside == "Inside", 1, 0) # read as "if Inside, set to 1, else 0"
  )

snodgrass

## # A tibble: 91 x 2
##    inside  area
##     <dbl> <dbl>
##  1      0  144 
##  2      0  256 
##  3      1  306 
##  4      1  452.
##  5      1  410 
##  6      1  264 
##  7      1  342 
##  8      1  399 
##  9      0   60 
## 10      0  217 
## # ... with 81 more rows
…
So, first, we’ll load in the data. This time, we’ll have to download
the data, then load it into R.

download.file(
  "https://raw.githubusercontent.com/kbvernon/qaad/master/datasets/grave_goods.csv",
  destfile = here("data", "grave_goods.csv")
)

grave_goods <- here("data", "grave_goods.csv") %>% 
  read.csv() %>% 
  as_tibble()

grave_goods

## # A tibble: 100 x 2
##    goods distance
##    <dbl>    <dbl>
##  1     3    1.16 
##  2     0    3.16 
##  3     2    1.64 
##  4     2    3.53 
##  5     0    3.76 
##  6     9    0.192
##  7     3    2.12 
##  8     0    3.57 
##  9     1    2.21 
## 10     0    1.83 
## # ... with 90 more rows
…
