Lab 11
…
So, first, we’ll load in the data. This time, we’ll have to download
the data, then load it into R.

download.file(
  "https://raw.githubusercontent.com/kbvernon/qaad/master/datasets/surveys.csv",
  destfile = here("data", "surveys.csv")
)

surveys <- here("data", "surveys.csv") %>% 
  read.csv() %>% 
  as_tibble()

surveys

## # A tibble: 100 x 4
##    block sites  area elevation
##    <dbl> <dbl> <dbl>     <dbl>
##  1     1    53  2.86      1.33
##  2     2    92  4.41      1.43
##  3     3   108  3.61      1.97
##  4     4    52  3.44      1.52
##  5     5    37  2.48      1.54
##  6     6   132  3.93      2.01
##  7     7    46  2.74      1.64
##  8     8    10  1.33      1.12
##  9     9    48  3.39      1.29
## 10    10   103  5.47      1.37
## # ... with 90 more rows
…
