Lab 13
…
For creating publication-quality graphics, I recommend using a
package like ggeffects because of its ease of use (and
consistency). The basic idea here is to generate a table of data,
including model estimates, that you can then use to plot the estimated
non-linear trend. To do that, we use the ggpredict()
function, passing it the model object.

estimate <- ggpredict(patch_gam, terms = "distance")

# convert to tibble for more useful printing
estimate <- as_tibble(estimate)

estimate
## # A tibble: 50 x 6
##        x predicted std.error conf.low conf.high group
##    <dbl>     <dbl>     <dbl>    <dbl>     <dbl> <fct>
##  1 0         0.898     0.351    0.211      1.59 1    
##  2 0.204     1.06      0.314    0.442      1.67 1    
##  3 0.408     1.22      0.282    0.663      1.77 1    
##  4 0.612     1.38      0.256    0.874      1.88 1    
##  5 0.816     1.53      0.235    1.07       1.99 1    
##  6 1.02      1.69      0.219    1.26       2.12 1    
##  7 1.22      1.85      0.208    1.44       2.26 1    
##  8 1.43      2.00      0.200    1.61       2.40 1    
##  9 1.63      2.16      0.194    1.78       2.54 1    
## 10 1.84      2.31      0.191    1.93       2.68 1    
## # ... with 40 more rows
…
patch_gam_bysex <- gam(
  time ~ s(distance, by = sex), 
  family = gaussian(link = "identity"),
  data = patch
)
## Error in smoothCon(split$smooth.spec[[i]], data, knots, absorb.cons, scale.penalty = scale.penalty, : Can't find by variable

It can’t find the by variable because it’s looking for a factor, not
a character. To fix this, we will just mutate that variable.

patch <- patch %>% mutate(sex = factor(sex))

patch
## # A tibble: 100 x 3
##    sex    distance  time
##    <fct>     <dbl> <dbl>
##  1 female    0     0.527
##  2 female    0.204 1.30 
##  3 female    0.408 1.22 
##  4 female    0.612 0.546
##  5 female    0.816 1.88 
##  6 female    1.02  1.06 
##  7 female    1.22  2.17 
##  8 female    1.43  1.55 
##  9 female    1.63  2.31 
## 10 female    1.84  3.03 
## # ... with 90 more rows
…
And, lo, it’s a significant difference! But, how do we visualize
this? The answer to that is still ggpredict(), albeit with
a subtle change.

estimate <- ggpredict(patch_gam_bysex, terms = c("distance", "sex"))

# convert to tibble for more useful printing
estimate <- as_tibble(estimate)

estimate
## # A tibble: 100 x 6
##        x predicted std.error conf.low conf.high group 
##    <dbl>     <dbl>     <dbl>    <dbl>     <dbl> <fct> 
##  1 0         0.863     0.301    0.274      1.45 female
##  2 0         0.720     0.287    0.158      1.28 male  
##  3 0.204     1.06      0.244    0.581      1.54 female
##  4 0.204     0.827     0.238    0.361      1.29 male  
##  5 0.408     1.26      0.202    0.864      1.66 female
##  6 0.408     0.933     0.199    0.543      1.32 male  
##  7 0.612     1.46      0.177    1.11       1.81 female
##  8 0.612     1.04      0.174    0.697      1.38 male  
##  9 0.816     1.67      0.168    1.34       2.00 female
## 10 0.816     1.14      0.162    0.825      1.46 male  
## # ... with 90 more rows
…
