Quantitative Analysis of Archaeological Data - Lab 06: Working with Tables
…
As you can see, using the dplyr function is quite a bit easier to read and intuit what you are doing. It also plays nice with the pipe.

select()

If you want to select one or more variables but return the result as a table, pass the table along with the names of the desired variables to select(). As an example, suppose (for reasons) that we want a smaller table that only has the species and bill_length_mm variables. To get that from the larger table, I simply do this

penguins |> select(species, bill_length_mm)

# A tibble: 344 × 2
   species bill_length_mm
   <fct>            <dbl>
 1 Adelie            39.1
 2 Adelie            39.5
 3 Adelie            40.3
 4 Adelie            NA  
 5 Adelie            36.7
 6 Adelie            39.3
 7 Adelie            38.9
 8 Adelie            39.2
 9 Adelie            34.1
10 Adelie            42  
# … with 334 more rows
…
penguins |> relocate(sex, year, .after = island) |> names()

[1] "species"           "island"            "sex"              
[4] "year"              "bill_length_mm"    "bill_depth_mm"    
[7] "flipper_length_mm" "body_mass_g"      

mutate()

One of the most important and powerful functions provided by dplyr is mutate(). This allows you to add or change variables, often based on the values of other variables in your table. For instance, you can create a new variable that codes bill length in centimeters rather than millimeters. You just divide millimeters by 10.

penguins |> 
  mutate(bill_length_cm = bill_length_mm/10) |> 
  select(species, bill_length_mm, bill_length_cm)

# A tibble: 344 × 3
   species bill_length_mm bill_length_cm
   <fct>            <dbl>          <dbl>
 1 Adelie            39.1           3.91
 2 Adelie            39.5           3.95
 3 Adelie            40.3           4.03
 4 Adelie            NA            NA   
 5 Adelie            36.7           3.67
 6 Adelie            39.3           3.93
 7 Adelie            38.9           3.89
 8 Adelie            39.2           3.92
 9 Adelie            34.1           3.41
10 Adelie            42             4.2 
# … with 334 more rows

You can refer to as many variables in the table as you like, too. For instance, you can calculate the ratio of bill length to flipper length.

penguins |> 
  mutate(bill_to_flipper = bill_length_mm/flipper_length_mm) |> 
  select(species, bill_length_mm, flipper_length_mm, bill_to_flipper)

# A tibble: 344 × 4
   species bill_length_mm flipper_length_mm bill_to_flipper
   <fct>            <dbl>             <int>           <dbl>
 1 Adelie            39.1               181           0.216
 2 Adelie            39.5               186           0.212
 3 Adelie            40.3               195           0.207
 4 Adelie            NA                  NA          NA    
 5 Adelie            36.7               193           0.190
 6 Adelie            39.3               190           0.207
 7 Adelie            38.9               181           0.215
 8 Adelie            39.2               195           0.201
 9 Adelie            34.1               193           0.177
10 Adelie            42                 190           0.221
# … with 334 more rows
…
Error in `mutate()`:
! Problem while computing `id = 1:5`.
✖ `id` must be size 344 or 1, not 5.

Note, too, that you can refer to new variables you have created in the same mutate() call.

penguins |> 
  select(species, island) |> 
  mutate(
    id = 1:n(),
    id2 = id * 2
  )

# A tibble: 344 × 4
   species island       id   id2
   <fct>   <fct>     <int> <dbl>
 1 Adelie  Torgersen     1     2
 2 Adelie  Torgersen     2     4
 3 Adelie  Torgersen     3     6
 4 Adelie  Torgersen     4     8
 5 Adelie  Torgersen     5    10
 6 Adelie  Torgersen     6    12
 7 Adelie  Torgersen     7    14
 8 Adelie  Torgersen     8    16
 9 Adelie  Torgersen     9    18
10 Adelie  Torgersen    10    20
# … with 334 more rows
…
Use mutate() to add a variable to darts that is the ratio of point length to width.

Rows

arrange()

Sometimes it can be useful to sort a table, so you can more easily navigate the information it contains. To do this, dplyr provides the arrange() function. This sorts observations based on a supplied variable or variables. By default, it sorts observations in ascending order. If you provide multiple variables, it will sort the first variable first, then sort the second variable within that variable, and so on. In effect, it breaks ties in the sorting process.

penguins |> arrange(species, island)

# A tibble: 344 × 8
   species island bill_length_mm bill_depth_mm flipper_len…¹ body_…² sex    year
   <fct>   <fct>           <dbl>         <dbl>         <int>   <int> <fct> <int>
 1 Adelie  Biscoe           37.8          18.3           174    3400 fema…  2007
 2 Adelie  Biscoe           37.7          18.7           180    3600 male   2007
 3 Adelie  Biscoe           35.9          19.2           189    3800 fema…  2007
 4 Adelie  Biscoe           38.2          18.1           185    3950 male   2007
 5 Adelie  Biscoe           38.8          17.2           180    3800 male   2007
 6 Adelie  Biscoe           35.3          18.9           187    3800 fema…  2007
 7 Adelie  Biscoe           40.6          18.6           183    3550 male   2007
 8 Adelie  Biscoe           40.5          17.9           187    3200 fema…  2007
 9 Adelie  Biscoe           37.9          18.6           172    3150 fema…  2007
10 Adelie  Biscoe           40.5          18.9           180    3950 male   2007
# … with 334 more rows, and abbreviated variable names ¹​flipper_length_mm,
#   ²​body_mass_g

You can use the desc() function to sort descending.

penguins |> arrange(desc(species))

# A tibble: 344 × 8
   species island bill_length_mm bill_depth_mm flipper_len…¹ body_…² sex    year
   <fct>   <fct>           <dbl>         <dbl>         <int>   <int> <fct> <int>
 1 Gentoo  Biscoe           46.1          13.2           211    4500 fema…  2007
 2 Gentoo  Biscoe           50            16.3           230    5700 male   2007
 3 Gentoo  Biscoe           48.7          14.1           210    4450 fema…  2007
 4 Gentoo  Biscoe           50            15.2           218    5700 male   2007
 5 Gentoo  Biscoe           47.6          14.5           215    5400 male   2007
 6 Gentoo  Biscoe           46.5          13.5           210    4550 fema…  2007
 7 Gentoo  Biscoe           45.4          14.6           211    4800 fema…  2007
 8 Gentoo  Biscoe           46.7          15.3           219    5200 male   2007
 9 Gentoo  Biscoe           43.3          13.4           209    4400 fema…  2007
10 Gentoo  Biscoe           46.8          15.4           215    5150 male   2007
# … with 334 more rows, and abbreviated variable names ¹​flipper_length_mm,
#   ²​body_mass_g
…
# A tibble: 3 × 2
      x y    
  <dbl> <chr>
1     1 a    
2     3 b    
3     2 c    

filter()

Subsetting data by filtering observations is a little bit more involved than simply selecting variables, but intuitively, you are simply asking for those observations that satisfy a certain condition. Getting filter() to return those observations requires that you pass it an expression containing a comparison operator. The expression is then evaluated by R for its truth or falsity, with observations that evaluate to TRUE being returned, observations that evaluate to FALSE being ignored. Let’s walk through an example, then try to break down what is happening in a little more detail. Suppose we want only those observations of penguins residing on Biscoe Island. Here is how we would go about collecting those observations from our penguins data.frame.

penguins |> filter(island == "Biscoe")

# A tibble: 168 × 8
   species island bill_length_mm bill_depth_mm flipper_len…¹ body_…² sex    year
   <fct>   <fct>           <dbl>         <dbl>         <int>   <int> <fct> <int>
 1 Adelie  Biscoe           37.8          18.3           174    3400 fema…  2007
 2 Adelie  Biscoe           37.7          18.7           180    3600 male   2007
 3 Adelie  Biscoe           35.9          19.2           189    3800 fema…  2007
 4 Adelie  Biscoe           38.2          18.1           185    3950 male   2007
 5 Adelie  Biscoe           38.8          17.2           180    3800 male   2007
 6 Adelie  Biscoe           35.3          18.9           187    3800 fema…  2007
 7 Adelie  Biscoe           40.6          18.6           183    3550 male   2007
 8 Adelie  Biscoe           40.5          17.9           187    3200 fema…  2007
 9 Adelie  Biscoe           37.9          18.6           172    3150 fema…  2007
10 Adelie  Biscoe           40.5          18.9           180    3950 male   2007
# … with 158 more rows, and abbreviated variable names ¹​flipper_length_mm,
#   ²​body_mass_g
…
> for greater than,

>= for greater than or equal to,

< for less than, and

<= for less than or equal to.

You can use the first two, == and !=, for comparisons with either character or numeric variables, but the rest apply only to the latter. Let’s run through a few more examples:

Filter penguins with body mass greater than 3500 grams.

penguins |> filter(body_mass_g > 3500)

# A tibble: 264 × 8
   species island    bill_length_mm bill_depth_mm flipper_…¹ body_…² sex    year
   <fct>   <fct>              <dbl>         <dbl>      <int>   <int> <fct> <int>
 1 Adelie  Torgersen           39.1          18.7        181    3750 male   2007
 2 Adelie  Torgersen           39.5          17.4        186    3800 fema…  2007
 3 Adelie  Torgersen           39.3          20.6        190    3650 male   2007
 4 Adelie  Torgersen           38.9          17.8        181    3625 fema…  2007
 5 Adelie  Torgersen           39.2          19.6        195    4675 male   2007
 6 Adelie  Torgersen           42            20.2        190    4250 <NA>   2007
 7 Adelie  Torgersen           37.8          17.3        180    3700 <NA>   2007
 8 Adelie  Torgersen           38.6          21.2        191    3800 male   2007
 9 Adelie  Torgersen           34.6          21.1        198    4400 male   2007
10 Adelie  Torgersen           36.6          17.8        185    3700 fema…  2007
# … with 254 more rows, and abbreviated variable names ¹​flipper_length_mm,
#   ²​body_mass_g

Filter penguins with beaks longer than 39 millimeters.

penguins |> filter(bill_length_mm > 39)

# A tibble: 260 × 8
   species island    bill_length_mm bill_depth_mm flipper_…¹ body_…² sex    year
   <fct>   <fct>              <dbl>         <dbl>      <int>   <int> <fct> <int>
 1 Adelie  Torgersen           39.1          18.7        181    3750 male   2007
 2 Adelie  Torgersen           39.5          17.4        186    3800 fema…  2007
 3 Adelie  Torgersen           40.3          18          195    3250 fema…  2007
 4 Adelie  Torgersen           39.3          20.6        190    3650 male   2007
 5 Adelie  Torgersen           39.2          19.6        195    4675 male   2007
 6 Adelie  Torgersen           42            20.2        190    4250 <NA>   2007
 7 Adelie  Torgersen           41.1          17.6        182    3200 fema…  2007
 8 Adelie  Torgersen           42.5          20.7        197    4500 male   2007
 9 Adelie  Torgersen           46            21.5        194    4200 male   2007
10 Adelie  Biscoe              40.6          18.6        183    3550 male   2007
# … with 250 more rows, and abbreviated variable names ¹​flipper_length_mm,
#   ²​body_mass_g
…
!(x & y)
`!(color == "yellow" & shape == "circle")`
A, C

!(x | y)
`!(color == "yellow" | shape == "circle")`
NULL

And here is an example with our penguins data, where we ask R to return those observations in which (a) penguins reside on Biscoe Island and (b) their bills are longer than 39 millimeters.

penguins |> filter(island == "Biscoe" & bill_length_mm > 39)

# A tibble: 143 × 8
   species island bill_length_mm bill_depth_mm flipper_len…¹ body_…² sex    year
   <fct>   <fct>           <dbl>         <dbl>         <int>   <int> <fct> <int>
 1 Adelie  Biscoe           40.6          18.6           183    3550 male   2007
 2 Adelie  Biscoe           40.5          17.9           187    3200 fema…  2007
 3 Adelie  Biscoe           40.5          18.9           180    3950 male   2007
 4 Adelie  Biscoe           39.6          17.7           186    3500 fema…  2008
 5 Adelie  Biscoe           40.1          18.9           188    4300 male   2008
 6 Adelie  Biscoe           42            19.5           200    4050 male   2008
 7 Adelie  Biscoe           41.4          18.6           191    3700 male   2008
 8 Adelie  Biscoe           40.6          18.8           193    3800 male   2008
 9 Adelie  Biscoe           41.3          21.1           195    4400 male   2008
10 Adelie  Biscoe           41.1          18.2           192    4050 male   2008
# … with 133 more rows, and abbreviated variable names ¹​flipper_length_mm,
#   ²​body_mass_g
…
Filter penguins that have a flipper length greater than 185 mm.

Filter penguins that reside on Torgersen island and have a body mass less than 3500 g.

Try filtering the DartPoints dataset.

Filter darts that

Groups

Your data will often include natural groupings (like species in the penguins table or dart types in the darts table), and you will want to summarize information about each of those groups. The way that you do this with dplyr involves the use of group_by() and summarize().

penguins |> group_by(species)

# A tibble: 344 × 8
# Groups:   species [3]
   species island    bill_length_mm bill_depth_mm flipper_…¹ body_…² sex    year
   <fct>   <fct>              <dbl>         <dbl>      <int>   <int> <fct> <int>
 1 Adelie  Torgersen           39.1          18.7        181    3750 male   2007
 2 Adelie  Torgersen           39.5          17.4        186    3800 fema…  2007
 3 Adelie  Torgersen           40.3          18          195    3250 fema…  2007
 4 Adelie  Torgersen           NA            NA           NA      NA <NA>   2007
 5 Adelie  Torgersen           36.7          19.3        193    3450 fema…  2007
 6 Adelie  Torgersen           39.3          20.6        190    3650 male   2007
 7 Adelie  Torgersen           38.9          17.8        181    3625 fema…  2007
 8 Adelie  Torgersen           39.2          19.6        195    4675 male   2007
 9 Adelie  Torgersen           34.1          18.1        193    3475 <NA>   2007
10 Adelie  Torgersen           42            20.2        190    4250 <NA>   2007
# … with 334 more rows, and abbreviated variable names ¹​flipper_length_mm,
#   ²​body_mass_g
…
