Quantitative Analysis of Archaeological Data - Lab 12: Logistic Regression
…
filename <- here("data", "darts.csv")

write_csv(DartPoints, filename = filename)

darts <- read_csv(filename) |> 
  as_tibble() |> 
  rename_with(tolower) |> 
  rename("type" = name)

remove(DartPoints, filename) # remove these objects from your environment

darts

#> # A tibble: 91 × 17
#>    type  catalog tarl  quad  length width thick…¹ b.width j.width h.len…² weight
#>    <fct> <chr>   <chr> <chr>  <dbl> <dbl>   <dbl>   <dbl>   <dbl>   <dbl>  <dbl>
#>  1 Darl  41-0322 41CV… 26/59   42.8  15.8     5.8    11.3    10.6    11.6    3.6
#>  2 Darl  35-2946 41CV… 21/63   40.5  17.4     5.8    NA      13.7    12.9    4.5
#>  3 Darl  35-2921 41CV… 20/63   37.5  16.3     6.1    12.1    11.3     8.2    3.6
#>  4 Darl  36-3487 41CV… 10/54   40.3  16.1     6.3    13.5    11.7     8.3    4  
#>  5 Darl  36-3321 41CV… 12/58   30.6  17.1     4      12.6    11.2     8.9    2.3
#>  6 Darl  35-2959 41CV… 21/63   41.8  16.8     4.1    12.7    11.5    11      3  
#>  7 Darl  35-2866 41CV… 25/65   40.3  20.7     5.9    11.7    11.4     7.6    3.9
#>  8 Darl  41-0323 41CV… 26/59   48.5  18.7     6.9    14.7    13.4     9.2    6.2
#>  9 Darl  35-2325 41CV… 20/48   47.7  17.5     7.2    14.3    11.8     8.9    5.1
#> 10 Darl  40-0847 41CV… 05/48   33.6  15.8     5.1    NA      12.5    11.5    2.8
#> # … with 81 more rows, 6 more variables: blade.sh <fct>, base.sh <fct>,
#> #   should.sh <fct>, should.or <fct>, haft.sh <fct>, haft.or <fct>, and
#> #   abbreviated variable names ¹​thickness, ²​h.length
…
filename <- here("data", "snodgrass.csv")

write_csv(Snodgrass, filename = filename)

snodgrass <- read_csv(filename) |> 
  as_tibble() |> 
  rename_with(tolower) |> 
  select(inside, area) |> 
  mutate(inside = ifelse(inside == "Inside", 1, 0)) # read as "if Inside, set to 1, else 0"

remove(Snodgrass, filename)  

snodgrass

#> # A tibble: 91 × 2
#>    inside  area
#>     <dbl> <dbl>
#>  1      0  144 
#>  2      0  256 
#>  3      1  306 
#>  4      1  452.
#>  5      1  410 
#>  6      1  264 
#>  7      1  342 
#>  8      1  399 
#>  9      0   60 
#> 10      0  217 
#> # … with 81 more rows
…
