Quantitative Analysis of Archaeological Data - Lab 13: Poisson Regression
…
Poisson regression

Here, we’re going to work with a response variable consisting of counts. That means poisson regression, which requires that we specify a poisson distribution with a log link. Here, we’ll be using the grave_goods data to answer the following

Question Does distance from a great house (measured in kilometers) drive variation in the number of grave goods at archaeological sites?

So, first, we’ll load in the data. In this case, we’ll have to pull the data in from a remote source. This is a made-up data set, so you should not draw any conclusions from it. It does have some intuition behind it, but it’s mainly for illustration purposes.

file_url <- "https://raw.githubusercontent.com/kbvernon/qaad/master/labs/grave_goods.csv"

grave_goods <- read_csv(file_url)

grave_goods
#> # A tibble: 100 × 2
#>    goods distance
#>    <dbl>    <dbl>
#>  1     3    1.16 
#>  2     0    3.16 
#>  3     2    1.64 
#>  4     2    3.53 
#>  5     0    3.76 
#>  6     9    0.192
#>  7     3    2.12 
#>  8     0    3.57 
#>  9     1    2.21 
#> 10     0    1.83 
#> # … with 90 more rows
…
where \(A_i\) is the area of survey block \(i\) and \(\lambda_i\) is the count at \(i\).

Notice that this is still a log-linear model of the counts \(\lambda_i\). However, we now include as a constant offset \(log\; (A_i)\). We say constant offset because the coefficient for this term is just 1. Importantly, the constant offset is added to the effect of the covariates, so you can read the equation as saying that greater sampling intensity leads to larger counts. It’s also worth noting that we are using a spatial measure to describe our sampling intensity, but we could have used time as well.

So, now the question: how do we add these in R? There are a few ways to do this, but I’m going to show you my preferred way, which is to incorporate the offset as a term in the model formula using the offset() function. I prefer doing it this way because it’s more expressive of the underlying logic.

OK, to see how this works, let’s first download our survey data.

file_url <- "https://raw.githubusercontent.com/kbvernon/qaad/master/slides/surveys.csv"

surveys <- read_csv(file_url)

surveys
#> # A tibble: 100 × 4
#>    block sites  area elevation
#>    <dbl> <dbl> <dbl>     <dbl>
#>  1     1    53  2.86      1.33
#>  2     2    92  4.41      1.43
#>  3     3   108  3.61      1.97
#>  4     4    52  3.44      1.52
#>  5     5    37  2.48      1.54
#>  6     6   132  3.93      2.01
#>  7     7    46  2.74      1.64
#>  8     8    10  1.33      1.12
#>  9     9    48  3.39      1.29
#> 10    10   103  5.47      1.37
#> # … with 90 more rows
…
